7.137899999999999801e-02,5.161525199999999813e+01
6.146100000000000174e-02,5.161060100000000261e+01
5.864699999999999774e-02,5.160907199999999762e+01
5.576799999999999813e-02,5.160648299999999722e+01
5.571999999999999870e-02,5.160640300000000025e+01
4.305799999999999905e-02,5.160073200000000071e+01
2.086400000000000060e-02,5.160848099999999761e+01
2.006000000000000144e-02,5.160742700000000127e+01
8.687999999999999542e-03,5.161861700000000042e+01
8.449999999999999178e-03,5.161865000000000236e+01
1.469999999999999953e-04,5.161901199999999790e+01
-1.910000000000000077e-04,5.161886899999999656e+01
-1.754000000000000004e-02,5.161702400000000068e+01
-2.735900000000000137e-02,5.161724900000000105e+01
-2.758800000000000141e-02,5.161738600000000332e+01
-2.072699999999999890e-02,5.162709499999999707e+01
