-3.690069999999999739e-01,5.162438000000000216e+01
-3.839540000000000175e-01,5.163893499999999648e+01
-3.843150000000000177e-01,5.164667699999999684e+01
-3.844230000000000147e-01,5.164678599999999875e+01
-3.846859999999999724e-01,5.164705699999999666e+01
-3.860589999999999855e-01,5.164809900000000198e+01
-3.882120000000000015e-01,5.164954199999999673e+01
-3.875649999999999928e-01,5.164992399999999861e+01
-3.856809999999999961e-01,5.165142800000000278e+01
-3.855999999999999983e-01,5.165156700000000001e+01
-3.861669999999999825e-01,5.165465499999999821e+01
-3.875549999999999828e-01,5.165507900000000063e+01
-3.882010000000000183e-01,5.165525300000000186e+01
-3.842130000000000267e-01,5.166466299999999734e+01
-3.841140000000000110e-01,5.166498299999999944e+01
-3.713690000000000047e-01,5.167064700000000244e+01
-3.702320000000000055e-01,5.167158899999999733e+01
-3.733520000000000172e-01,5.167599700000000240e+01
-3.811189999999999856e-01,5.170457999999999998e+01
-3.836209999999999898e-01,5.170567599999999686e+01
-3.822320000000000162e-01,5.170553699999999964e+01
-3.716869999999999896e-01,5.171460499999999882e+01
-3.702340000000000075e-01,5.171530500000000075e+01
-3.640999999999999792e-01,5.171292400000000100e+01
-3.076510000000000078e-01,5.171078500000000133e+01
