-2.384400000000000130e-01,5.163913099999999901e+01
-2.417030000000000012e-01,5.164262300000000039e+01
-2.546910000000000007e-01,5.164285499999999729e+01
-2.553949999999999831e-01,5.164308799999999877e+01
-2.610529999999999795e-01,5.164479899999999901e+01
-2.998040000000000149e-01,5.164377600000000257e+01
-3.130189999999999917e-01,5.164265699999999981e+01
-3.204449999999999799e-01,5.164256900000000172e+01
-3.213670000000000138e-01,5.164273500000000183e+01
-3.216950000000000087e-01,5.164302299999999946e+01
-3.624290000000000012e-01,5.166559500000000327e+01
-3.629629999999999801e-01,5.166586399999999912e+01
-3.702790000000000248e-01,5.167063399999999973e+01
-3.925779999999999825e-01,5.168133000000000266e+01
-3.937689999999999801e-01,5.168135800000000302e+01
-4.092959999999999932e-01,5.168395399999999995e+01
-4.132870000000000155e-01,5.168467600000000317e+01
-4.141920000000000046e-01,5.168525100000000094e+01
-4.140209999999999724e-01,5.168668499999999710e+01
-4.140340000000000131e-01,5.168670300000000140e+01
-4.148490000000000233e-01,5.168655900000000258e+01
-4.156679999999999819e-01,5.168628600000000262e+01
-4.169030000000000236e-01,5.168421699999999674e+01
-4.168819999999999748e-01,5.168398299999999779e+01
-4.202230000000000132e-01,5.168029299999999893e+01
-4.213069999999999871e-01,5.168108500000000305e+01
-4.226699999999999902e-01,5.168202600000000047e+01
