-2.431770000000000043e-01,5.166636499999999899e+01
-2.426860000000000128e-01,5.166778000000000048e+01
-2.492570000000000063e-01,5.165610499999999661e+01
-2.481510000000000105e-01,5.165529300000000035e+01
-2.515760000000000218e-01,5.165549500000000194e+01
-2.505410000000000137e-01,5.165617999999999910e+01
-2.503589999999999982e-01,5.165607099999999718e+01
-2.493819999999999926e-01,5.165654599999999874e+01
-2.335790000000000088e-01,5.168029700000000304e+01
-2.314360000000000028e-01,5.168481299999999834e+01
-2.311189999999999911e-01,5.168594199999999717e+01
-3.642199999999999882e-01,5.171274400000000071e+01
-3.710700000000000109e-01,5.171443699999999666e+01
-3.717139999999999889e-01,5.171464600000000189e+01
-3.828920000000000101e-01,5.171637199999999979e+01
-5.038709999999999578e-01,5.164136200000000088e+01
-5.095910000000000162e-01,5.163723300000000194e+01
-5.095830000000000082e-01,5.163711700000000349e+01
-5.080459999999999976e-01,5.163566800000000256e+01
-5.039249999999999563e-01,5.163014799999999838e+01
-5.037260000000000071e-01,5.163010599999999783e+01
-4.985580000000000012e-01,5.163178800000000024e+01
-4.980720000000000147e-01,5.163107800000000225e+01
-4.964089999999999892e-01,5.162886300000000261e+01
