1.250380000000000102e-01,5.166551900000000330e+01
1.276609999999999967e-01,5.166249799999999937e+01
1.163929999999999965e-01,5.165423599999999738e+01
1.007860000000000006e-01,5.167140799999999956e+01
6.281899999999999984e-02,5.167499800000000221e+01
6.224799999999999778e-02,5.167508200000000329e+01
3.480199999999999960e-02,5.167802799999999763e+01
3.440100000000000102e-02,5.167796400000000290e+01
3.377399999999999847e-02,5.167797900000000055e+01
2.765600000000000003e-02,5.167790000000000106e+01
-3.642199999999999882e-01,5.171274400000000071e+01
-3.710700000000000109e-01,5.171443699999999666e+01
-3.711280000000000134e-01,5.171442499999999853e+01
-3.742280000000000051e-01,5.171280300000000096e+01
-3.740589999999999749e-01,5.171273399999999754e+01
-3.770120000000000138e-01,5.170993399999999696e+01
