-2.285409999999999942e-01,5.167571699999999879e+01
-2.183309999999999973e-01,5.167662200000000183e+01
-2.178849999999999953e-01,5.167662399999999678e+01
-2.018620000000000136e-01,5.165619499999999675e+01
-1.965860000000000107e-01,5.165112200000000087e+01
-1.857999999999999929e-01,5.165284100000000223e+01
-1.791840000000000099e-01,5.165145900000000267e+01
-1.787430000000000130e-01,5.165028199999999714e+01
-1.756709999999999938e-01,5.165103400000000278e+01
-1.758969999999999978e-01,5.165142600000000073e+01
-1.751699999999999924e-01,5.165170400000000228e+01
