-1.822350000000000081e-01,5.168366499999999775e+01
-2.164969999999999950e-01,5.168363200000000290e+01
-2.281070000000000042e-01,5.168513200000000296e+01
-2.295760000000000023e-01,5.168434400000000295e+01
-2.337549999999999906e-01,5.167965399999999931e+01
-2.542840000000000100e-01,5.164346299999999701e+01
-2.553949999999999831e-01,5.164308799999999877e+01
-2.610529999999999795e-01,5.164479899999999901e+01
-2.998040000000000149e-01,5.164377600000000257e+01
-3.130189999999999917e-01,5.164265699999999981e+01
-3.204449999999999799e-01,5.164256900000000172e+01
-3.211089999999999778e-01,5.164247300000000251e+01
-3.298559999999999826e-01,5.164167299999999727e+01
-3.329730000000000190e-01,5.163321899999999687e+01
-3.361250000000000071e-01,5.163109899999999897e+01
-3.385929999999999773e-01,5.163231900000000252e+01
-3.423689999999999789e-01,5.163173799999999858e+01
-3.450559999999999738e-01,5.163109399999999738e+01
-3.456460000000000088e-01,5.163240299999999650e+01
