-3.345299999999999940e-01,5.164979300000000251e+01
-3.332559999999999967e-01,5.164702499999999930e+01
-3.210430000000000228e-01,5.164286500000000046e+01
-3.208280000000000021e-01,5.164284099999999711e+01
-2.612249999999999850e-01,5.164497200000000277e+01
-2.609620000000000273e-01,5.164505299999999721e+01
-2.608340000000000103e-01,5.164487499999999898e+01
-2.551490000000000147e-01,5.164339799999999769e+01
-2.547479999999999745e-01,5.164356500000000239e+01
-2.335790000000000088e-01,5.168029700000000304e+01
-2.314360000000000028e-01,5.168481299999999834e+01
-2.269710000000000061e-01,5.168663000000000096e+01
2.324100000000000124e-02,5.167799899999999980e+01
2.833000000000000101e-02,5.167987699999999762e+01
2.911499999999999852e-02,5.168014800000000264e+01
3.419300000000000117e-02,5.167844099999999941e+01
3.453500000000000320e-02,5.167823299999999875e+01
4.133300000000000168e-02,5.167846699999999771e+01
4.021000000000000268e-02,5.167390199999999822e+01
4.479299999999999948e-02,5.166964600000000019e+01
4.057600000000000096e-02,5.166628999999999650e+01
3.428799999999999903e-02,5.166296400000000233e+01
2.163199999999999845e-02,5.166250800000000254e+01
