-4.969459999999999988e-01,5.162264400000000109e+01
-4.949640000000000151e-01,5.162542899999999690e+01
-4.985580000000000012e-01,5.163178800000000024e+01
-5.035690000000000444e-01,5.162961299999999909e+01
-5.044750000000000068e-01,5.162972200000000100e+01
-5.051769999999999872e-01,5.163086700000000207e+01
-5.103239999999999998e-01,5.163662599999999969e+01
-5.110949999999999660e-01,5.163800799999999924e+01
-2.837950000000000195e-01,5.171514799999999923e+01
-2.794159999999999977e-01,5.171700899999999734e+01
-2.783120000000000038e-01,5.171738599999999764e+01
-2.763499999999999845e-01,5.171545600000000320e+01
-2.761609999999999898e-01,5.171529400000000010e+01
-2.554279999999999884e-01,5.170552899999999852e+01
-2.540490000000000248e-01,5.169556599999999946e+01
-2.480799999999999950e-01,5.169511200000000173e+01
-2.446190000000000031e-01,5.168907699999999750e+01
-2.492540000000000033e-01,5.168733799999999690e+01
-2.480370000000000075e-01,5.168052099999999882e+01
