-1.354170000000000096e-01,5.166593699999999956e+01
-1.352889999999999926e-01,5.166780599999999879e+01
-1.415679999999999994e-01,5.166770700000000005e+01
-1.573269999999999946e-01,5.166717799999999983e+01
-1.607369999999999910e-01,5.167150600000000082e+01
-1.701479999999999937e-01,5.168534600000000268e+01
-1.711479999999999946e-01,5.168740499999999827e+01
-1.641630000000000034e-01,5.168791999999999831e+01
2.571359999999999757e-01,5.161353400000000136e+01
2.610770000000000035e-01,5.161025500000000221e+01
2.623099999999999876e-01,5.160933800000000105e+01
2.625049999999999883e-01,5.160760899999999651e+01
2.319920000000000038e-01,5.159823999999999700e+01
2.227999999999999980e-01,5.160815399999999897e+01
2.226720000000000088e-01,5.160842900000000100e+01
2.182310000000000083e-01,5.161096200000000067e+01
2.175980000000000136e-01,5.161096799999999973e+01
2.150380000000000069e-01,5.160907699999999920e+01
2.147779999999999967e-01,5.160921600000000353e+01
