3.601000000000000034e-03,5.166252599999999973e+01
-1.773000000000000053e-03,5.166366699999999668e+01
3.210999999999999879e-03,5.167739199999999755e+01
3.719000000000000083e-03,5.167782100000000156e+01
3.380400000000000071e-02,5.167796100000000337e+01
3.377399999999999847e-02,5.167797900000000055e+01
2.765600000000000003e-02,5.167790000000000106e+01
-1.641739999999999866e-01,5.168777999999999651e+01
-1.695460000000000023e-01,5.168624100000000254e+01
-1.721350000000000102e-01,5.168712699999999671e+01
-1.733379999999999921e-01,5.168843400000000088e+01
-1.780239999999999878e-01,5.168811999999999784e+01
-1.866170000000000051e-01,5.168169799999999725e+01
-2.093289999999999873e-01,5.167936100000000010e+01
-2.045230000000000103e-01,5.167379100000000136e+01
