1.394080000000000041e-01,5.165718700000000041e+01
1.184230000000000005e-01,5.165137399999999701e+01
1.182529999999999970e-01,5.165180600000000055e+01
1.007860000000000006e-01,5.167140799999999956e+01
9.470099999999999352e-02,5.167269100000000037e+01
9.263100000000000500e-02,5.167704100000000267e+01
9.149899999999999700e-02,5.167856700000000103e+01
8.940199999999999536e-02,5.167836400000000197e+01
