-4.630800000000000194e-02,5.166917500000000274e+01
-4.147100000000000092e-02,5.166828000000000287e+01
-3.410099999999999937e-02,5.167988900000000285e+01
-5.093099999999999711e-02,5.168006400000000156e+01
-5.063299999999999745e-02,5.168247399999999914e+01
-5.093799999999999717e-02,5.168275100000000322e+01
-5.895100000000000340e-02,5.168242599999999953e+01
-2.164969999999999950e-01,5.168363200000000290e+01
-2.281070000000000042e-01,5.168513200000000296e+01
-2.295760000000000023e-01,5.168434400000000295e+01
-2.337549999999999906e-01,5.167965399999999931e+01
-2.542840000000000100e-01,5.164346299999999701e+01
-2.553949999999999831e-01,5.164308799999999877e+01
-2.610529999999999795e-01,5.164479899999999901e+01
-2.998040000000000149e-01,5.164377600000000257e+01
-3.130189999999999917e-01,5.164265699999999981e+01
-3.204449999999999799e-01,5.164256900000000172e+01
-3.211089999999999778e-01,5.164247300000000251e+01
-3.298559999999999826e-01,5.164167299999999727e+01
-3.329730000000000190e-01,5.163321899999999687e+01
-3.361250000000000071e-01,5.163109899999999897e+01
-3.425860000000000016e-01,5.162077500000000185e+01
-3.542609999999999926e-01,5.162143100000000118e+01
