-1.856309999999999905e-01,5.164981000000000222e+01
-1.898170000000000135e-01,5.165322599999999653e+01
-1.965860000000000107e-01,5.165112200000000087e+01
-1.999080000000000024e-01,5.165301600000000093e+01
-2.179200000000000026e-01,5.165270100000000042e+01
-2.546910000000000007e-01,5.164285499999999729e+01
-2.548250000000000237e-01,5.164281400000000133e+01
-2.545069999999999832e-01,5.162226100000000173e+01
-2.547479999999999745e-01,5.162167199999999667e+01
-2.554190000000000071e-01,5.162129800000000301e+01
-2.875389999999999890e-01,5.162364199999999670e+01
-2.879659999999999997e-01,5.162360600000000233e+01
-2.924649999999999750e-01,5.162173099999999692e+01
-2.927449999999999775e-01,5.162160399999999782e+01
-3.080700000000000105e-01,5.161800999999999817e+01
-3.114239999999999786e-01,5.161765499999999918e+01
-3.217659999999999965e-01,5.162510100000000079e+01
-3.235219999999999763e-01,5.162442300000000017e+01
-3.227389999999999981e-01,5.162382600000000110e+01
