-3.540599999999999858e-01,5.164172299999999893e+01
-3.513950000000000129e-01,5.163823000000000008e+01
-3.514959999999999751e-01,5.163809100000000285e+01
-3.477160000000000251e-01,5.163726400000000183e+01
-3.300669999999999993e-01,5.164164099999999991e+01
-3.213820000000000010e-01,5.164270299999999736e+01
-3.208280000000000021e-01,5.164284099999999711e+01
-2.612249999999999850e-01,5.164497200000000277e+01
-2.609620000000000273e-01,5.164505299999999721e+01
-2.608340000000000103e-01,5.164487499999999898e+01
-2.551490000000000147e-01,5.164339799999999769e+01
-2.547479999999999745e-01,5.164356500000000239e+01
-2.335790000000000088e-01,5.168029700000000304e+01
-2.314360000000000028e-01,5.168481299999999834e+01
-2.269710000000000061e-01,5.168663000000000096e+01
-5.899299999999999683e-02,5.168257400000000246e+01
-5.070399999999999907e-02,5.168361000000000161e+01
-4.959399999999999920e-02,5.168234600000000256e+01
-5.075899999999999856e-02,5.168050999999999817e+01
-5.029600000000000043e-02,5.168003099999999961e+01
-3.943399999999999683e-02,5.168095100000000031e+01
-3.897799999999999876e-02,5.168234700000000004e+01
-4.303900000000000087e-02,5.168169300000000277e+01
-4.345199999999999757e-02,5.168165700000000129e+01
