1.346630000000000049e-01,5.166807200000000222e+01
1.323020000000000029e-01,5.167306200000000160e+01
1.108070000000000027e-01,5.166848499999999689e+01
1.007860000000000006e-01,5.167140799999999956e+01
6.281899999999999984e-02,5.167499800000000221e+01
6.224799999999999778e-02,5.167508200000000329e+01
3.480199999999999960e-02,5.167802799999999763e+01
3.440100000000000102e-02,5.167796400000000290e+01
3.377399999999999847e-02,5.167797900000000055e+01
2.765600000000000003e-02,5.167790000000000106e+01
-2.164969999999999950e-01,5.168363200000000290e+01
-2.281070000000000042e-01,5.168513200000000296e+01
-2.295760000000000023e-01,5.168434400000000295e+01
-2.337549999999999906e-01,5.167965399999999931e+01
-2.492570000000000063e-01,5.165610499999999661e+01
-2.481510000000000105e-01,5.165529300000000035e+01
-2.515760000000000218e-01,5.165549500000000194e+01
-2.505410000000000137e-01,5.165617999999999910e+01
-2.503589999999999982e-01,5.165607099999999718e+01
-2.493819999999999926e-01,5.165654599999999874e+01
-2.437229999999999952e-01,5.166690599999999733e+01
