-4.184599999999999986e-01,5.162096300000000326e+01
-4.275320000000000231e-01,5.161986399999999975e+01
-4.373540000000000205e-01,5.163236500000000007e+01
-4.461439999999999850e-01,5.163281899999999780e+01
-4.461069999999999758e-01,5.163312200000000018e+01
-4.439790000000000125e-01,5.163573000000000235e+01
-4.369390000000000218e-01,5.163841699999999690e+01
-4.371450000000000058e-01,5.163882699999999915e+01
-4.367820000000000036e-01,5.164000599999999963e+01
