-1.421070000000000111e-01,5.168177200000000227e+01
-1.405500000000000083e-01,5.168132500000000107e+01
-1.042079999999999951e-01,5.166346500000000219e+01
-9.937300000000000300e-02,5.166326999999999714e+01
-8.766599999999999393e-02,5.165944300000000311e+01
-8.010899999999999965e-02,5.165679699999999741e+01
-8.061000000000000110e-02,5.165447799999999745e+01
-8.048399999999999999e-02,5.165227800000000258e+01
-7.973199999999999732e-02,5.165220500000000214e+01
-7.971300000000000607e-02,5.165074400000000310e+01
-8.169500000000000373e-02,5.164497300000000024e+01
-7.890600000000000391e-02,5.164125400000000354e+01
-8.158899999999999486e-02,5.163675200000000132e+01
-7.810999999999999888e-02,5.162981099999999657e+01
-8.623899999999999622e-02,5.161663399999999768e+01
-8.618900000000000172e-02,5.161659600000000125e+01
-7.988000000000000655e-02,5.161499299999999835e+01
-6.408899999999999320e-02,5.161467700000000036e+01
-6.018899999999999945e-02,5.161420199999999880e+01
-4.682299999999999657e-02,5.161136900000000338e+01
-4.284600000000000214e-02,5.161200699999999841e+01
-3.217500000000000221e-02,5.161192100000000238e+01
-2.224200000000000135e-02,5.160400700000000285e+01
2.855800000000000005e-02,5.159609700000000032e+01
1.198290000000000050e-01,5.167312100000000186e+01
1.217219999999999969e-01,5.167663900000000154e+01
1.179560000000000053e-01,5.168002200000000101e+01
