-3.331950000000000189e-01,5.163015200000000249e+01
-3.319199999999999928e-01,5.162981700000000274e+01
-3.299409999999999843e-01,5.164156100000000293e+01
-3.213820000000000010e-01,5.164270299999999736e+01
-3.208280000000000021e-01,5.164284099999999711e+01
-2.612249999999999850e-01,5.164497200000000277e+01
-2.609620000000000273e-01,5.164505299999999721e+01
-2.608340000000000103e-01,5.164487499999999898e+01
-2.551490000000000147e-01,5.164339799999999769e+01
-2.547479999999999745e-01,5.164356500000000239e+01
-2.335790000000000088e-01,5.168029700000000304e+01
-2.314360000000000028e-01,5.168481299999999834e+01
-2.269710000000000061e-01,5.168663000000000096e+01
2.324100000000000124e-02,5.167799899999999980e+01
2.833000000000000101e-02,5.167987699999999762e+01
2.911499999999999852e-02,5.168014800000000264e+01
3.419300000000000117e-02,5.167844099999999941e+01
3.453500000000000320e-02,5.167823299999999875e+01
6.249400000000000094e-02,5.167526500000000311e+01
6.287299999999999833e-02,5.167517000000000138e+01
1.007860000000000006e-01,5.167140799999999956e+01
1.184230000000000005e-01,5.165137399999999701e+01
1.717609999999999970e-01,5.165514000000000294e+01
1.720389999999999975e-01,5.165467300000000250e+01
1.751489999999999991e-01,5.163151200000000074e+01
1.820730000000000126e-01,5.162836399999999770e+01
1.815329999999999999e-01,5.162802700000000300e+01
