-1.174299999999999997e-02,5.161642700000000161e+01
-1.742900000000000005e-02,5.161609500000000139e+01
-1.754000000000000004e-02,5.161702400000000068e+01
-1.186700000000000081e-02,5.162712499999999949e+01
-1.187200000000000061e-02,5.162723499999999888e+01
-1.336500000000000014e-02,5.163369200000000347e+01
-1.287199999999999976e-02,5.163604999999999734e+01
-3.248399999999999899e-02,5.164452399999999699e+01
-3.284299999999999720e-02,5.164470699999999681e+01
-3.766699999999999909e-02,5.164691299999999785e+01
-4.627300000000000163e-02,5.164839800000000025e+01
-6.026999999999999719e-02,5.164941300000000268e+01
-5.063299999999999745e-02,5.168247399999999914e+01
-5.093799999999999717e-02,5.168275100000000322e+01
-5.895100000000000340e-02,5.168242599999999953e+01
-2.164969999999999950e-01,5.168363200000000290e+01
-2.281070000000000042e-01,5.168513200000000296e+01
-2.270260000000000056e-01,5.168759200000000220e+01
-2.258870000000000045e-01,5.168738900000000314e+01
-2.255119999999999902e-01,5.169040300000000343e+01
-2.255530000000000035e-01,5.169046600000000069e+01
-2.256690000000000085e-01,5.169062999999999874e+01
-2.265459999999999974e-01,5.169178099999999887e+01
-2.323129999999999917e-01,5.169351799999999741e+01
-2.332329999999999959e-01,5.169287599999999827e+01
-2.370520000000000127e-01,5.169122600000000034e+01
-2.540490000000000248e-01,5.169556599999999946e+01
-2.759510000000000018e-01,5.169389300000000276e+01
-2.688980000000000259e-01,5.169677300000000031e+01
-2.702010000000000245e-01,5.169768100000000288e+01
