-2.212999999999999967e-01,5.161740600000000256e+01
-2.213990000000000125e-01,5.161730699999999672e+01
-2.335150000000000003e-01,5.162167000000000172e+01
-2.366580000000000072e-01,5.161524399999999702e+01
-2.426649999999999918e-01,5.161598399999999742e+01
-2.429290000000000060e-01,5.161586700000000150e+01
-2.444810000000000039e-01,5.161636200000000230e+01
-2.449810000000000043e-01,5.161661800000000255e+01
-2.549319999999999919e-01,5.162125100000000089e+01
-2.554190000000000071e-01,5.162129800000000301e+01
-2.875389999999999890e-01,5.162364199999999670e+01
-2.879659999999999997e-01,5.162360600000000233e+01
-2.924649999999999750e-01,5.162173099999999692e+01
-2.927449999999999775e-01,5.162160399999999782e+01
-3.080700000000000105e-01,5.161800999999999817e+01
-3.114239999999999786e-01,5.161765499999999918e+01
-3.197380000000000222e-01,5.162379599999999868e+01
-3.236939999999999817e-01,5.162151899999999927e+01
