-4.450169999999999959e-01,5.168626199999999926e+01
-4.370839999999999725e-01,5.169307500000000033e+01
-4.304899999999999838e-01,5.168525799999999748e+01
-4.299229999999999996e-01,5.168485400000000141e+01
-4.256980000000000208e-01,5.168406199999999728e+01
-4.206829999999999736e-01,5.168544099999999730e+01
-4.169619999999999993e-01,5.168848700000000207e+01
-4.168459999999999943e-01,5.168876699999999857e+01
-4.156449999999999867e-01,5.169196000000000168e+01
-4.157569999999999877e-01,5.169223099999999960e+01
-4.177440000000000042e-01,5.169305500000000109e+01
-4.178520000000000012e-01,5.169338599999999673e+01
-4.160809999999999786e-01,5.169263500000000278e+01
