-8.069099999999999884e-02,5.161793699999999774e+01
-8.095700000000000118e-02,5.161671100000000223e+01
-8.204599999999999393e-02,5.161666600000000216e+01
-8.507099999999999385e-02,5.161607099999999804e+01
-8.629199999999999371e-02,5.161608700000000027e+01
-8.700499999999999901e-02,5.161664600000000291e+01
-7.828599999999999448e-02,5.162990099999999671e+01
-8.158899999999999486e-02,5.163675200000000132e+01
-7.890600000000000391e-02,5.164125400000000354e+01
-8.169500000000000373e-02,5.164497300000000024e+01
-8.072899999999999521e-02,5.165226499999999987e+01
-8.061000000000000110e-02,5.165447799999999745e+01
-8.011799999999999478e-02,5.165673699999999968e+01
-8.766599999999999393e-02,5.165944300000000311e+01
-9.937300000000000300e-02,5.166326999999999714e+01
-1.042079999999999951e-01,5.166346500000000219e+01
-1.064959999999999934e-01,5.166524199999999922e+01
-1.415679999999999994e-01,5.166770700000000005e+01
-1.573269999999999946e-01,5.166717799999999983e+01
-1.577089999999999881e-01,5.166766400000000203e+01
-1.646610000000000018e-01,5.166678199999999777e+01
-1.648509999999999975e-01,5.166527899999999818e+01
