1.078130000000000061e-01,5.164156299999999788e+01
1.085580000000000017e-01,5.164153000000000304e+01
1.038489999999999969e-01,5.164434599999999875e+01
1.036679999999999963e-01,5.164459599999999995e+01
1.067799999999999999e-01,5.164629699999999701e+01
1.179110000000000019e-01,5.165033600000000291e+01
1.184230000000000005e-01,5.165137399999999701e+01
1.182529999999999970e-01,5.165180600000000055e+01
1.007860000000000006e-01,5.167140799999999956e+01
6.281899999999999984e-02,5.167499800000000221e+01
6.224799999999999778e-02,5.167508200000000329e+01
3.480199999999999960e-02,5.167802799999999763e+01
3.440100000000000102e-02,5.167796400000000290e+01
3.377399999999999847e-02,5.167797900000000055e+01
2.765600000000000003e-02,5.167790000000000106e+01
-2.164969999999999950e-01,5.168363200000000290e+01
-2.281070000000000042e-01,5.168513200000000296e+01
-2.295760000000000023e-01,5.168434400000000295e+01
-2.337549999999999906e-01,5.167965399999999931e+01
-2.542840000000000100e-01,5.164346299999999701e+01
-2.553949999999999831e-01,5.164308799999999877e+01
-2.610529999999999795e-01,5.164479899999999901e+01
-2.998040000000000149e-01,5.164377600000000257e+01
-3.130189999999999917e-01,5.164265699999999981e+01
-3.204449999999999799e-01,5.164256900000000172e+01
-3.213670000000000138e-01,5.164273500000000183e+01
-3.216950000000000087e-01,5.164302299999999946e+01
-3.508330000000000060e-01,5.165806200000000104e+01
-3.505199999999999982e-01,5.165548199999999923e+01
-3.471580000000000221e-01,5.164815000000000111e+01
-3.447760000000000269e-01,5.164992099999999908e+01
-3.440469999999999917e-01,5.164953299999999814e+01
