-3.910399999999999987e-01,5.168892300000000262e+01
-3.934719999999999884e-01,5.168752599999999831e+01
-3.900219999999999798e-01,5.168697300000000183e+01
-3.923010000000000108e-01,5.168155000000000143e+01
-3.701380000000000225e-01,5.167066499999999962e+01
-3.627850000000000241e-01,5.166600400000000093e+01
-3.623089999999999922e-01,5.166565599999999847e+01
-3.210430000000000228e-01,5.164286500000000046e+01
-3.204520000000000146e-01,5.164254999999999995e+01
-3.042980000000000129e-01,5.163714000000000226e+01
-3.036579999999999835e-01,5.163694100000000020e+01
-3.014700000000000157e-01,5.163509499999999974e+01
-2.886850000000000249e-01,5.162455299999999880e+01
-2.553819999999999979e-01,5.162173700000000309e+01
-2.546849999999999947e-01,5.162159499999999923e+01
-2.448390000000000011e-01,5.161685299999999899e+01
-2.443190000000000084e-01,5.161659000000000219e+01
-2.431520000000000070e-01,5.161603000000000208e+01
-2.366580000000000072e-01,5.161524399999999702e+01
-2.342650000000000010e-01,5.162156999999999840e+01
-2.335150000000000003e-01,5.162167000000000172e+01
-2.195890000000000064e-01,5.161708500000000299e+01
-2.169520000000000060e-01,5.161768500000000159e+01
-2.154429999999999956e-01,5.161943699999999779e+01
-2.174590000000000134e-01,5.162285500000000127e+01
