-4.360699999999999993e-02,5.163250399999999729e+01
-4.807999999999999774e-02,5.163925700000000063e+01
-4.766499999999999904e-02,5.164025800000000288e+01
-4.641200000000000186e-02,5.164840499999999679e+01
-6.026999999999999719e-02,5.164941300000000268e+01
-5.063299999999999745e-02,5.168247399999999914e+01
-5.093799999999999717e-02,5.168275100000000322e+01
-5.895100000000000340e-02,5.168242599999999953e+01
-3.642199999999999882e-01,5.171274400000000071e+01
-3.710700000000000109e-01,5.171443699999999666e+01
-3.711280000000000134e-01,5.171442499999999853e+01
-3.830779999999999741e-01,5.170324300000000051e+01
-3.853170000000000206e-01,5.169381200000000121e+01
-3.879989999999999828e-01,5.169494900000000115e+01
-3.884270000000000223e-01,5.169442599999999999e+01
