-2.631229999999999958e-01,5.168185100000000176e+01
-2.663659999999999917e-01,5.168005099999999885e+01
-2.610359999999999903e-01,5.167513600000000196e+01
-2.548509999999999942e-01,5.167388499999999851e+01
-2.453049999999999953e-01,5.167746600000000257e+01
-2.392630000000000035e-01,5.167256700000000080e+01
-2.385319999999999940e-01,5.167278799999999706e+01
-2.335790000000000088e-01,5.168029700000000304e+01
-2.314360000000000028e-01,5.168481299999999834e+01
-2.269710000000000061e-01,5.168663000000000096e+01
-1.772910000000000041e-01,5.168441500000000133e+01
-1.721590000000000065e-01,5.168701699999999732e+01
-1.693590000000000095e-01,5.168608600000000308e+01
-1.250880000000000047e-01,5.167585900000000265e+01
-1.224630000000000024e-01,5.167788399999999882e+01
-1.136889999999999984e-01,5.168559299999999723e+01
-9.901200000000000279e-02,5.168347599999999886e+01
-9.798700000000000465e-02,5.168135399999999890e+01
-1.011070000000000024e-01,5.168083099999999774e+01
-1.009209999999999968e-01,5.168040400000000290e+01
-1.037959999999999994e-01,5.167993500000000040e+01
-1.040739999999999998e-01,5.167976500000000328e+01
