-4.597209999999999908e-01,5.163660000000000139e+01
-4.610270000000000201e-01,5.163482299999999725e+01
-4.439790000000000125e-01,5.163573000000000235e+01
-4.276699999999999946e-01,5.163991000000000042e+01
-4.272110000000000074e-01,5.164002800000000093e+01
-4.138879999999999781e-01,5.164927600000000041e+01
-4.117970000000000241e-01,5.164849000000000245e+01
-4.097859999999999836e-01,5.164996000000000009e+01
-4.067100000000000160e-01,5.164854900000000271e+01
-4.048059999999999992e-01,5.164740499999999912e+01
-4.013220000000000121e-01,5.164694999999999681e+01
-3.887729999999999797e-01,5.164722100000000182e+01
-3.882120000000000015e-01,5.164954199999999673e+01
-3.866760000000000197e-01,5.164850899999999712e+01
-3.844529999999999892e-01,5.164709799999999973e+01
-3.842380000000000240e-01,5.164698500000000081e+01
-3.784210000000000074e-01,5.164651099999999673e+01
-3.705890000000000017e-01,5.164562300000000050e+01
-3.688830000000000164e-01,5.164529300000000234e+01
-3.661610000000000142e-01,5.164831499999999664e+01
-3.643589999999999884e-01,5.164717499999999717e+01
-3.615209999999999813e-01,5.165003200000000305e+01
-3.588310000000000111e-01,5.165206400000000286e+01
-3.579300000000000259e-01,5.165164899999999903e+01
-3.558549999999999769e-01,5.165130599999999816e+01
