-2.546689999999999787e-01,5.161970300000000123e+01
-2.557229999999999781e-01,5.162061800000000034e+01
-2.553699999999999859e-01,5.162127699999999919e+01
-2.552240000000000064e-01,5.162178200000000317e+01
-2.553099999999999814e-01,5.164293800000000090e+01
-2.547479999999999745e-01,5.164356500000000239e+01
-2.390470000000000095e-01,5.167213499999999726e+01
-2.393149999999999999e-01,5.167250200000000149e+01
-2.453049999999999953e-01,5.167746600000000257e+01
-2.548509999999999942e-01,5.167388499999999851e+01
-2.610359999999999903e-01,5.167513600000000196e+01
-2.773209999999999842e-01,5.168792499999999990e+01
-2.811969999999999748e-01,5.169223999999999819e+01
-2.838720000000000132e-01,5.169417599999999879e+01
-2.878269999999999995e-01,5.169858399999999676e+01
-2.883200000000000207e-01,5.169841100000000012e+01
-2.885240000000000027e-01,5.169802500000000123e+01
-2.917810000000000126e-01,5.169761499999999899e+01
