2.128680000000000017e-01,5.163498799999999989e+01
2.004209999999999881e-01,5.163133200000000045e+01
1.915800000000000003e-01,5.163211600000000345e+01
1.873319999999999985e-01,5.162694799999999873e+01
1.751489999999999991e-01,5.163151200000000074e+01
1.715879999999999905e-01,5.165480300000000113e+01
1.715430000000000010e-01,5.165491600000000005e+01
1.184230000000000005e-01,5.165137399999999701e+01
1.182529999999999970e-01,5.165180600000000055e+01
1.007860000000000006e-01,5.167140799999999956e+01
6.281899999999999984e-02,5.167499800000000221e+01
6.224799999999999778e-02,5.167508200000000329e+01
3.480199999999999960e-02,5.167802799999999763e+01
3.440100000000000102e-02,5.167796400000000290e+01
3.425999999999999879e-02,5.167790999999999713e+01
3.831000000000000204e-03,5.167750099999999946e+01
3.739000000000000136e-03,5.167742499999999950e+01
-8.201999999999999222e-03,5.165065200000000090e+01
-9.204999999999999641e-03,5.165070500000000209e+01
