-4.269400000000000278e-02,5.162304999999999922e+01
-4.354500000000000037e-02,5.162319500000000261e+01
-3.283500000000000307e-02,5.164468000000000103e+01
-3.251899999999999930e-02,5.164493199999999717e+01
-3.025900000000000117e-02,5.164851199999999665e+01
-3.018500000000000003e-02,5.164869499999999647e+01
-2.877700000000000050e-02,5.165405100000000260e+01
-2.884600000000000011e-02,5.165421800000000019e+01
-2.975500000000000020e-02,5.165693799999999669e+01
-2.780499999999999985e-02,5.166294099999999645e+01
-2.700800000000000076e-02,5.166738399999999842e+01
-2.654799999999999868e-02,5.167110199999999764e+01
-3.027200000000000030e-02,5.167125899999999916e+01
-3.009500000000000022e-02,5.167379999999999995e+01
-3.048999999999999974e-02,5.167392300000000205e+01
-3.217300000000000021e-02,5.167430000000000234e+01
