-2.073679999999999968e-01,5.168563400000000030e+01
1.085760000000000058e-01,5.168334300000000070e+01
1.184019999999999934e-01,5.168058899999999767e+01
1.226539999999999991e-01,5.167698399999999737e+01
6.251299999999999912e-02,5.161813899999999933e+01
