-1.719299999999999995e-01,5.161907300000000021e+01
-1.766699999999999937e-01,5.161922200000000061e+01
-1.802300000000000013e-01,5.163981299999999663e+01
-1.809149999999999925e-01,5.164139200000000329e+01
-1.854649999999999910e-01,5.164521599999999779e+01
-1.874929999999999930e-01,5.164676899999999904e+01
-1.965860000000000107e-01,5.165112200000000087e+01
-2.018620000000000136e-01,5.165619499999999675e+01
-2.180539999999999978e-01,5.167650400000000133e+01
-2.183229999999999893e-01,5.167666700000000191e+01
-2.292889999999999928e-01,5.168443299999999851e+01
-2.311189999999999911e-01,5.168594199999999717e+01
-3.642199999999999882e-01,5.171274400000000071e+01
-3.710700000000000109e-01,5.171443699999999666e+01
-3.717139999999999889e-01,5.171464600000000189e+01
-3.828920000000000101e-01,5.171637199999999979e+01
-4.405939999999999857e-01,5.170297200000000259e+01
-4.427650000000000197e-01,5.170022399999999863e+01
-4.426889999999999992e-01,5.170011800000000335e+01
-4.311240000000000072e-01,5.168560300000000041e+01
-4.287409999999999832e-01,5.168431799999999754e+01
