-3.405719999999999859e-01,5.168952699999999822e+01
-3.383019999999999916e-01,5.168821100000000257e+01
-3.424240000000000061e-01,5.168209099999999978e+01
-3.422520000000000007e-01,5.167740799999999979e+01
-3.403860000000000219e-01,5.167751599999999712e+01
-3.227260000000000129e-01,5.168580299999999994e+01
-3.189919999999999978e-01,5.168696099999999660e+01
-3.176289999999999947e-01,5.168437500000000284e+01
-3.055669999999999775e-01,5.168681399999999826e+01
-2.960800000000000098e-01,5.168809699999999907e+01
-2.847879999999999856e-01,5.169384500000000315e+01
-2.838720000000000132e-01,5.169417599999999879e+01
-2.830509999999999970e-01,5.169370299999999929e+01
-2.759510000000000018e-01,5.169389300000000276e+01
-2.758289999999999909e-01,5.169355199999999684e+01
-2.540490000000000248e-01,5.169556599999999946e+01
-2.471490000000000076e-01,5.169515899999999675e+01
-2.445279999999999954e-01,5.169533200000000051e+01
-2.370520000000000127e-01,5.169122600000000034e+01
-2.323129999999999917e-01,5.169351799999999741e+01
-2.265459999999999974e-01,5.169178099999999887e+01
-2.254919999999999980e-01,5.169053900000000112e+01
-2.253080000000000083e-01,5.169040300000000343e+01
-2.241070000000000007e-01,5.168796799999999791e+01
-2.243310000000000026e-01,5.168752099999999672e+01
-2.268880000000000063e-01,5.168680599999999714e+01
-2.269710000000000061e-01,5.168663000000000096e+01
2.324100000000000124e-02,5.167799899999999980e+01
2.833000000000000101e-02,5.167987699999999762e+01
2.911499999999999852e-02,5.168014800000000264e+01
3.419300000000000117e-02,5.167844099999999941e+01
3.453500000000000320e-02,5.167823299999999875e+01
6.249400000000000094e-02,5.167526500000000311e+01
6.279099999999999959e-02,5.167495699999999914e+01
6.687400000000000289e-02,5.165607800000000083e+01
7.809599999999999875e-02,5.165028499999999667e+01
8.235599999999999865e-02,5.165282200000000046e+01
8.366600000000000426e-02,5.165297100000000086e+01
8.304799999999999682e-02,5.165383899999999784e+01
8.384199999999999986e-02,5.165425400000000167e+01
