7.820799999999999974e-02,5.163647100000000023e+01
4.385000000000000009e-02,5.159696199999999777e+01
4.220800000000000246e-02,5.159591400000000050e+01
2.874700000000000172e-02,5.159592099999999704e+01
1.847999999999999990e-02,5.159528999999999854e+01
1.163299999999999924e-02,5.159513199999999955e+01
1.092199999999999942e-02,5.159631999999999863e+01
1.796400000000000080e-02,5.160501500000000163e+01
1.844200000000000006e-02,5.160573899999999981e+01
2.006000000000000144e-02,5.160742700000000127e+01
1.315500000000000003e-02,5.161567000000000149e+01
