1.223110000000000031e-01,5.165808200000000028e+01
1.163929999999999965e-01,5.165423599999999738e+01
1.184230000000000005e-01,5.165137399999999701e+01
1.179110000000000019e-01,5.165033600000000291e+01
1.067799999999999999e-01,5.164629699999999701e+01
1.039640000000000009e-01,5.164450599999999980e+01
1.038059999999999955e-01,5.164433400000000063e+01
8.693099999999999439e-02,5.163500299999999754e+01
8.302800000000000458e-02,5.164328700000000083e+01
6.138300000000000006e-02,5.163885499999999951e+01
5.516900000000000276e-02,5.163491899999999646e+01
5.864599999999999674e-02,5.163352799999999831e+01
5.872000000000000136e-02,5.163358300000000156e+01
