1.008099999999999968e-02,5.162484899999999755e+01
9.842000000000000054e-03,5.162557199999999824e+01
1.096600000000000005e-02,5.162567899999999810e+01
1.021900000000000065e-02,5.162725400000000064e+01
2.116300000000000125e-02,5.162571100000000257e+01
3.028399999999999842e-02,5.162912299999999988e+01
3.030599999999999961e-02,5.162918200000000013e+01
3.363900000000000223e-02,5.162815899999999658e+01
3.296899999999999831e-02,5.162698900000000179e+01
4.813100000000000017e-02,5.162713500000000266e+01
6.598299999999999998e-02,5.162540599999999813e+01
8.086400000000000532e-02,5.162447999999999837e+01
8.308699999999999419e-02,5.162758300000000133e+01
8.693099999999999439e-02,5.163500299999999754e+01
9.859999999999999321e-02,5.164114599999999911e+01
