3.578400000000000331e-02,5.165345800000000054e+01
3.702099999999999835e-02,5.165725900000000337e+01
3.930399999999999866e-02,5.165568999999999988e+01
3.963099999999999956e-02,5.165575299999999714e+01
6.226199999999999790e-02,5.167501800000000145e+01
6.224799999999999778e-02,5.167508200000000329e+01
3.480199999999999960e-02,5.167802799999999763e+01
3.440100000000000102e-02,5.167796400000000290e+01
3.377399999999999847e-02,5.167797900000000055e+01
2.765600000000000003e-02,5.167790000000000106e+01
-2.704409999999999870e-01,5.171503200000000078e+01
-2.761669999999999958e-01,5.171533099999999905e+01
-2.766719999999999735e-01,5.171520699999999948e+01
-2.807390000000000163e-01,5.171520300000000248e+01
-2.948580000000000090e-01,5.170936900000000236e+01
-3.253150000000000208e-01,5.169837499999999864e+01
-3.263940000000000174e-01,5.170027900000000187e+01
-3.319500000000000228e-01,5.169930699999999746e+01
