-4.211909999999999821e-01,5.166998699999999900e+01
-4.183600000000000096e-01,5.166728200000000015e+01
-4.178830000000000044e-01,5.166725300000000232e+01
-4.132259999999999822e-01,5.166945400000000177e+01
-4.303600000000000203e-01,5.168343000000000131e+01
-4.316340000000000177e-01,5.168497200000000191e+01
-4.326229999999999798e-01,5.168725500000000039e+01
-4.430000000000000049e-01,5.169972299999999876e+01
-4.440239999999999743e-01,5.170112600000000214e+01
2.324100000000000124e-02,5.167799899999999980e+01
2.833000000000000101e-02,5.167987699999999762e+01
2.911499999999999852e-02,5.168014800000000264e+01
3.419300000000000117e-02,5.167844099999999941e+01
3.453500000000000320e-02,5.167823299999999875e+01
6.249400000000000094e-02,5.167526500000000311e+01
6.287299999999999833e-02,5.167517000000000138e+01
1.007860000000000006e-01,5.167140799999999956e+01
1.184230000000000005e-01,5.165137399999999701e+01
1.179110000000000019e-01,5.165033600000000291e+01
1.067799999999999999e-01,5.164629699999999701e+01
1.039640000000000009e-01,5.164450599999999980e+01
1.039670000000000039e-01,5.164449599999999663e+01
1.134980000000000017e-01,5.161960100000000295e+01
1.357629999999999948e-01,5.160438599999999809e+01
1.462509999999999921e-01,5.161132500000000078e+01
