-1.835499999999999979e-02,5.163779600000000158e+01
-3.248399999999999899e-02,5.164452399999999699e+01
-3.284299999999999720e-02,5.164470699999999681e+01
-3.766699999999999909e-02,5.164691299999999785e+01
-4.627300000000000163e-02,5.164839800000000025e+01
-6.026999999999999719e-02,5.164941300000000268e+01
-5.063299999999999745e-02,5.168247399999999914e+01
-5.093799999999999717e-02,5.168275100000000322e+01
-5.895100000000000340e-02,5.168242599999999953e+01
-3.642199999999999882e-01,5.171274400000000071e+01
-3.710700000000000109e-01,5.171443699999999666e+01
-3.711280000000000134e-01,5.171442499999999853e+01
-3.811499999999999888e-01,5.170671399999999807e+01
-3.800430000000000197e-01,5.170576599999999701e+01
-3.730149999999999855e-01,5.167584699999999742e+01
-3.688150000000000039e-01,5.167232500000000073e+01
-3.705459999999999865e-01,5.167001700000000142e+01
-3.829250000000000154e-01,5.166670299999999827e+01
-3.877510000000000123e-01,5.165537900000000349e+01
-3.877419999999999756e-01,5.165496999999999872e+01
-3.919369999999999798e-01,5.165303800000000223e+01
-3.986680000000000224e-01,5.165524200000000121e+01
-4.019420000000000215e-01,5.165545500000000345e+01
-4.250030000000000197e-01,5.165171800000000246e+01
-4.250909999999999966e-01,5.165164999999999651e+01
-4.248999999999999999e-01,5.164861100000000249e+01
-4.251289999999999791e-01,5.164829399999999993e+01
-4.261300000000000088e-01,5.164809600000000245e+01
-4.264729999999999910e-01,5.164820100000000025e+01
-4.315450000000000119e-01,5.164799200000000212e+01
-4.325320000000000276e-01,5.164730699999999786e+01
-4.368520000000000181e-01,5.164567600000000169e+01
-4.354089999999999905e-01,5.164571200000000317e+01
