-3.223429999999999906e-01,5.171184300000000178e+01
-2.837950000000000195e-01,5.171514799999999923e+01
-2.794159999999999977e-01,5.171700899999999734e+01
-2.783120000000000038e-01,5.171738599999999764e+01
-2.763499999999999845e-01,5.171545600000000320e+01
-2.761609999999999898e-01,5.171529400000000010e+01
-2.554279999999999884e-01,5.170552899999999852e+01
-2.540490000000000248e-01,5.169556599999999946e+01
-2.480799999999999950e-01,5.169511200000000173e+01
-2.446190000000000031e-01,5.168907699999999750e+01
-2.492540000000000033e-01,5.168733799999999690e+01
-2.453049999999999953e-01,5.167746600000000257e+01
-2.586890000000000023e-01,5.167126199999999869e+01
-2.568039999999999767e-01,5.166964300000000065e+01
-2.608059999999999823e-01,5.166796500000000236e+01
