-3.177530000000000077e-01,5.169649199999999922e+01
-3.225779999999999759e-01,5.169894399999999735e+01
-3.253150000000000208e-01,5.169837499999999864e+01
-3.314590000000000036e-01,5.170993899999999854e+01
-3.569910000000000028e-01,5.170686400000000305e+01
-3.570619999999999905e-01,5.170756699999999739e+01
-3.626949999999999896e-01,5.170852299999999957e+01
-3.644029999999999769e-01,5.170952299999999724e+01
-3.687119999999999842e-01,5.170572500000000105e+01
-3.800430000000000197e-01,5.170576599999999701e+01
-3.809319999999999928e-01,5.170629900000000134e+01
-3.816570000000000240e-01,5.170608099999999752e+01
-3.830779999999999741e-01,5.170324300000000051e+01
-3.840609999999999857e-01,5.169836600000000004e+01
-3.777130000000000210e-01,5.169833200000000062e+01
-3.778859999999999997e-01,5.169707600000000269e+01
-3.772800000000000042e-01,5.169637900000000030e+01
