-8.192900000000000182e-02,5.164407599999999832e+01
-8.257299999999999363e-02,5.164442900000000236e+01
-8.168799999999999673e-02,5.164485599999999721e+01
-8.027600000000000013e-02,5.165071100000000115e+01
-8.666000000000000092e-02,5.165152100000000246e+01
-8.709899999999999587e-02,5.165280299999999869e+01
-9.756399999999999795e-02,5.165391100000000080e+01
-1.052560000000000023e-01,5.165525000000000233e+01
-1.272880000000000122e-01,5.165048699999999826e+01
-1.459910000000000097e-01,5.164519299999999902e+01
-1.468409999999999993e-01,5.164513999999999783e+01
-1.610030000000000072e-01,5.164402499999999918e+01
-1.665679999999999938e-01,5.164588899999999683e+01
-1.756580000000000086e-01,5.164972800000000319e+01
-1.874929999999999930e-01,5.164676899999999904e+01
-1.903559999999999974e-01,5.164770200000000244e+01
-1.896289999999999920e-01,5.164564800000000133e+01
-1.886470000000000091e-01,5.164061900000000094e+01
-1.890360000000000096e-01,5.164062799999999953e+01
