-3.976589999999999847e-01,5.168220500000000328e+01
-3.927849999999999953e-01,5.168165400000000176e+01
-3.853170000000000206e-01,5.169381200000000121e+01
-3.716869999999999896e-01,5.171460499999999882e+01
-3.702340000000000075e-01,5.171530500000000075e+01
-3.640999999999999792e-01,5.171292400000000100e+01
-5.899299999999999683e-02,5.168257400000000246e+01
-5.070399999999999907e-02,5.168361000000000161e+01
-4.959399999999999920e-02,5.168234600000000256e+01
-5.904899999999999732e-02,5.165830499999999859e+01
-5.685500000000000276e-02,5.166498299999999944e+01
-5.698899999999999799e-02,5.166514099999999843e+01
-6.163400000000000128e-02,5.166533700000000096e+01
-6.205200000000000299e-02,5.166470799999999741e+01
-6.254400000000000237e-02,5.166478399999999738e+01
