-3.866339999999999777e-01,5.165688300000000055e+01
-3.842130000000000267e-01,5.166466299999999734e+01
-3.841140000000000110e-01,5.166498299999999944e+01
-3.713690000000000047e-01,5.167064700000000244e+01
-3.702320000000000055e-01,5.167158899999999733e+01
-3.733520000000000172e-01,5.167599700000000240e+01
-3.811189999999999856e-01,5.170457999999999998e+01
-3.836209999999999898e-01,5.170567599999999686e+01
-3.822320000000000162e-01,5.170553699999999964e+01
-3.716869999999999896e-01,5.171460499999999882e+01
-3.702340000000000075e-01,5.171530500000000075e+01
-3.640999999999999792e-01,5.171292400000000100e+01
-1.772910000000000041e-01,5.168441500000000133e+01
-1.721590000000000065e-01,5.168701699999999732e+01
-1.693590000000000095e-01,5.168608600000000308e+01
-1.042079999999999951e-01,5.166346500000000219e+01
-9.937300000000000300e-02,5.166326999999999714e+01
-8.766599999999999393e-02,5.165944300000000311e+01
-7.622299999999999909e-02,5.165571099999999660e+01
-7.617200000000000359e-02,5.165566599999999653e+01
-7.639100000000000057e-02,5.165290600000000154e+01
-7.618900000000000672e-02,5.165242299999999886e+01
-7.015399999999999414e-02,5.165155699999999683e+01
-6.953199999999999659e-02,5.165279900000000168e+01
-6.939599999999999935e-02,5.165311799999999920e+01
