3.978099999999999692e-02,5.166445499999999669e+01
4.001799999999999802e-02,5.166501699999999886e+01
4.479299999999999948e-02,5.166964600000000019e+01
4.021000000000000268e-02,5.167390199999999822e+01
4.133300000000000168e-02,5.167846699999999771e+01
3.480199999999999960e-02,5.167802799999999763e+01
3.440100000000000102e-02,5.167796400000000290e+01
3.377399999999999847e-02,5.167797900000000055e+01
2.765600000000000003e-02,5.167790000000000106e+01
-2.164969999999999950e-01,5.168363200000000290e+01
-2.281070000000000042e-01,5.168513200000000296e+01
-2.295760000000000023e-01,5.168434400000000295e+01
-2.337549999999999906e-01,5.167965399999999931e+01
-2.492570000000000063e-01,5.165610499999999661e+01
-2.485900000000000054e-01,5.165463400000000149e+01
-2.394820000000000004e-01,5.164758299999999736e+01
-2.389030000000000042e-01,5.164433600000000268e+01
-2.346810000000000007e-01,5.164615899999999726e+01
-2.340379999999999960e-01,5.164551399999999859e+01
