-6.024399999999999894e-02,5.161421399999999693e+01
-6.018899999999999945e-02,5.161420199999999880e+01
-4.682299999999999657e-02,5.161136900000000338e+01
-4.184000000000000219e-02,5.161240699999999748e+01
-3.691699999999999843e-02,5.161349100000000334e+01
-2.762399999999999925e-02,5.161732500000000101e+01
-2.758800000000000141e-02,5.161738600000000332e+01
-1.376400000000000019e-02,5.163242000000000331e+01
-1.336500000000000014e-02,5.163369200000000347e+01
-5.277999999999999706e-03,5.165614699999999715e+01
-2.902000000000000066e-03,5.165596800000000144e+01
