-2.061449999999999949e-01,5.165605999999999653e+01
-2.069340000000000068e-01,5.165652200000000249e+01
-2.046810000000000018e-01,5.165828900000000345e+01
-2.180539999999999978e-01,5.167650400000000133e+01
-2.505410000000000137e-01,5.165617999999999910e+01
-2.503589999999999982e-01,5.165607099999999718e+01
-2.493819999999999926e-01,5.165654599999999874e+01
-2.390470000000000095e-01,5.167213499999999726e+01
-2.393149999999999999e-01,5.167250200000000149e+01
-2.402080000000000048e-01,5.167530800000000113e+01
