8.180300000000000071e-02,5.166140000000000043e+01
7.802099999999999314e-02,5.165700700000000012e+01
7.636500000000000232e-02,5.165679800000000199e+01
7.313400000000000456e-02,5.165350200000000314e+01
8.047899999999999499e-02,5.164726199999999778e+01
8.693099999999999439e-02,5.163500299999999754e+01
1.035350000000000020e-01,5.164443399999999684e+01
1.039670000000000039e-01,5.164449599999999663e+01
1.094370000000000065e-01,5.164036000000000115e+01
