-8.390000000000000235e-02,5.164355799999999874e+01
-8.168799999999999673e-02,5.164485599999999721e+01
-8.072899999999999521e-02,5.165226499999999987e+01
-8.061000000000000110e-02,5.165447799999999745e+01
-8.011799999999999478e-02,5.165673699999999968e+01
-8.766599999999999393e-02,5.165944300000000311e+01
-9.937300000000000300e-02,5.166326999999999714e+01
-1.042079999999999951e-01,5.166346500000000219e+01
-1.692670000000000008e-01,5.168561499999999853e+01
-1.707509999999999861e-01,5.168570199999999915e+01
-1.758339999999999903e-01,5.168469000000000335e+01
-2.164969999999999950e-01,5.168363200000000290e+01
-2.281070000000000042e-01,5.168513200000000296e+01
-2.295760000000000023e-01,5.168434400000000295e+01
-2.337549999999999906e-01,5.167965399999999931e+01
-2.542840000000000100e-01,5.164346299999999701e+01
-2.553949999999999831e-01,5.164308799999999877e+01
-2.610529999999999795e-01,5.164479899999999901e+01
-2.998040000000000149e-01,5.164377600000000257e+01
-3.032599999999999740e-01,5.164418700000000229e+01
-3.257950000000000013e-01,5.166224199999999911e+01
-3.250990000000000268e-01,5.166263599999999911e+01
-3.246600000000000041e-01,5.166301200000000193e+01
