-4.080079999999999818e-01,5.163495499999999794e+01
-4.081330000000000235e-01,5.163435100000000233e+01
-3.997129999999999850e-01,5.164000999999999664e+01
-3.930629999999999957e-01,5.164339999999999975e+01
-3.953909999999999925e-01,5.164583900000000227e+01
-3.948840000000000128e-01,5.164713400000000121e+01
-3.887729999999999797e-01,5.164722100000000182e+01
-3.882120000000000015e-01,5.164954199999999673e+01
-3.875649999999999928e-01,5.164992399999999861e+01
-3.856809999999999961e-01,5.165142800000000278e+01
-3.855999999999999983e-01,5.165156700000000001e+01
-3.861669999999999825e-01,5.165465499999999821e+01
-3.875549999999999828e-01,5.165507900000000063e+01
-3.882010000000000183e-01,5.165525300000000186e+01
-3.842130000000000267e-01,5.166466299999999734e+01
-3.841140000000000110e-01,5.166498299999999944e+01
-3.713690000000000047e-01,5.167064700000000244e+01
-3.702320000000000055e-01,5.167158899999999733e+01
-3.733520000000000172e-01,5.167599700000000240e+01
-3.811189999999999856e-01,5.170457999999999998e+01
-3.836209999999999898e-01,5.170567599999999686e+01
-3.822320000000000162e-01,5.170553699999999964e+01
-3.716869999999999896e-01,5.171460499999999882e+01
-3.702340000000000075e-01,5.171530500000000075e+01
-3.640999999999999792e-01,5.171292400000000100e+01
2.324100000000000124e-02,5.167799899999999980e+01
2.833000000000000101e-02,5.167987699999999762e+01
2.911499999999999852e-02,5.168014800000000264e+01
3.419300000000000117e-02,5.167844099999999941e+01
3.453500000000000320e-02,5.167823299999999875e+01
6.249400000000000094e-02,5.167526500000000311e+01
6.279099999999999959e-02,5.167495699999999914e+01
6.687400000000000289e-02,5.165607800000000083e+01
8.047899999999999499e-02,5.164726199999999778e+01
8.693099999999999439e-02,5.163500299999999754e+01
8.316800000000000581e-02,5.162774999999999892e+01
8.259700000000000375e-02,5.162590800000000257e+01
9.799399999999999777e-02,5.161728899999999953e+01
