-1.433939999999999937e-01,5.163677799999999962e+01
-1.417960000000000054e-01,5.163622099999999904e+01
-1.445460000000000078e-01,5.163394199999999756e+01
-1.429080000000000072e-01,5.163216299999999848e+01
-1.435190000000000077e-01,5.163206300000000226e+01
-1.496470000000000022e-01,5.163067600000000112e+01
-1.502219999999999944e-01,5.163124799999999937e+01
-1.618030000000000024e-01,5.162765699999999924e+01
-1.747759999999999869e-01,5.162983200000000039e+01
-1.748840000000000117e-01,5.163017599999999874e+01
-1.917860000000000120e-01,5.163060300000000069e+01
-2.073019999999999863e-01,5.163447200000000237e+01
-2.360260000000000136e-01,5.163041199999999975e+01
-2.414939999999999864e-01,5.162728599999999801e+01
-2.545069999999999832e-01,5.162226100000000173e+01
-2.547479999999999745e-01,5.162167199999999667e+01
-2.554190000000000071e-01,5.162129800000000301e+01
-2.875389999999999890e-01,5.162364199999999670e+01
-2.882779999999999787e-01,5.162396499999999833e+01
-3.017159999999999842e-01,5.163510600000000039e+01
-3.039669999999999872e-01,5.163657800000000009e+01
-3.045789999999999886e-01,5.163675500000000085e+01
-3.207800000000000096e-01,5.164243199999999945e+01
-3.213670000000000138e-01,5.164273500000000183e+01
-3.216950000000000087e-01,5.164302299999999946e+01
-3.624290000000000012e-01,5.166559500000000327e+01
-3.624589999999999756e-01,5.166601599999999905e+01
-3.567409999999999748e-01,5.167023300000000319e+01
