-4.029780000000000029e-01,5.169889299999999821e+01
-4.037749999999999950e-01,5.169926999999999850e+01
-4.026609999999999912e-01,5.170109099999999813e+01
-4.028109999999999746e-01,5.170119300000000351e+01
-4.021730000000000027e-01,5.170307700000000040e+01
-4.021150000000000002e-01,5.170320799999999650e+01
-3.941060000000000119e-01,5.170864799999999661e+01
-3.814040000000000208e-01,5.170712400000000031e+01
-3.716869999999999896e-01,5.171460499999999882e+01
-3.702340000000000075e-01,5.171530500000000075e+01
-3.640999999999999792e-01,5.171292400000000100e+01
-1.011569999999999969e-01,5.169091300000000189e+01
