-3.966749999999999998e-01,5.169950000000000045e+01
-3.853849999999999776e-01,5.169399099999999692e+01
-3.716869999999999896e-01,5.171460499999999882e+01
-3.702340000000000075e-01,5.171530500000000075e+01
-3.640999999999999792e-01,5.171292400000000100e+01
2.324100000000000124e-02,5.167799899999999980e+01
2.833000000000000101e-02,5.167987699999999762e+01
2.911499999999999852e-02,5.168014800000000264e+01
3.419300000000000117e-02,5.167844099999999941e+01
3.453500000000000320e-02,5.167823299999999875e+01
6.249400000000000094e-02,5.167526500000000311e+01
6.279099999999999959e-02,5.167495699999999914e+01
6.687400000000000289e-02,5.165607800000000083e+01
8.047899999999999499e-02,5.164726199999999778e+01
8.344200000000000228e-02,5.164306200000000047e+01
9.132200000000000040e-02,5.164764799999999667e+01
