-4.745770000000000266e-01,5.164495200000000352e+01
-4.751219999999999888e-01,5.164473900000000128e+01
-4.923230000000000106e-01,5.165482699999999738e+01
-4.955010000000000248e-01,5.165538500000000255e+01
-4.965600000000000014e-01,5.165442500000000337e+01
-4.944009999999999794e-01,5.165674800000000033e+01
-4.592359999999999776e-01,5.167691899999999805e+01
-4.311539999999999817e-01,5.168377000000000265e+01
-4.299229999999999996e-01,5.168485400000000141e+01
-3.923010000000000108e-01,5.168155000000000143e+01
-3.701380000000000225e-01,5.167066499999999962e+01
-3.627850000000000241e-01,5.166600400000000093e+01
-3.623089999999999922e-01,5.166565599999999847e+01
-3.508330000000000060e-01,5.165806200000000104e+01
-3.505199999999999982e-01,5.165548199999999923e+01
-3.419639999999999902e-01,5.163806600000000202e+01
-3.418350000000000000e-01,5.163793299999999675e+01
-3.391140000000000265e-01,5.163866800000000268e+01
-3.377390000000000114e-01,5.163701300000000316e+01
-3.373160000000000047e-01,5.163718000000000075e+01
