-4.172930000000000250e-01,5.167602099999999865e+01
-4.176309999999999745e-01,5.168074099999999760e+01
-4.192270000000000163e-01,5.168149400000000071e+01
-4.168819999999999748e-01,5.168398299999999779e+01
-4.169030000000000236e-01,5.168421699999999674e+01
-4.157819999999999849e-01,5.168616200000000305e+01
-4.157290000000000152e-01,5.168653199999999970e+01
-4.156409999999999827e-01,5.168659699999999901e+01
-4.139800000000000146e-01,5.168680599999999714e+01
-4.138100000000000112e-01,5.168667200000000150e+01
-4.134840000000000182e-01,5.168546800000000019e+01
-4.134289999999999909e-01,5.168546200000000113e+01
-3.716869999999999896e-01,5.171460499999999882e+01
-3.702340000000000075e-01,5.171530500000000075e+01
-3.640999999999999792e-01,5.171292400000000100e+01
2.324100000000000124e-02,5.167799899999999980e+01
2.833000000000000101e-02,5.167987699999999762e+01
2.911499999999999852e-02,5.168014800000000264e+01
3.419300000000000117e-02,5.167844099999999941e+01
3.453500000000000320e-02,5.167823299999999875e+01
6.249400000000000094e-02,5.167526500000000311e+01
6.279099999999999959e-02,5.167495699999999914e+01
6.687400000000000289e-02,5.165607800000000083e+01
8.047899999999999499e-02,5.164726199999999778e+01
8.179000000000000159e-02,5.164575599999999866e+01
7.524999999999999745e-02,5.164500499999999761e+01
7.370200000000000362e-02,5.164440900000000312e+01
