-1.172190000000000037e-01,5.164468099999999851e+01
-1.167239999999999944e-01,5.164496499999999912e+01
-1.132390000000000063e-01,5.164493499999999671e+01
-1.109129999999999977e-01,5.164504399999999862e+01
-1.094340000000000035e-01,5.164507100000000150e+01
-1.095200000000000062e-01,5.164407500000000084e+01
-1.101860000000000062e-01,5.164357300000000350e+01
-1.160660000000000025e-01,5.164374999999999716e+01
-1.234289999999999971e-01,5.164409400000000261e+01
-1.303330000000000044e-01,5.164272799999999819e+01
-1.383000000000000063e-01,5.163659200000000027e+01
-1.429080000000000072e-01,5.163216299999999848e+01
-1.435190000000000077e-01,5.163206300000000226e+01
-1.496470000000000022e-01,5.163067600000000112e+01
-1.502219999999999944e-01,5.163124799999999937e+01
-1.618030000000000024e-01,5.162765699999999924e+01
-1.747759999999999869e-01,5.162983200000000039e+01
-1.748840000000000117e-01,5.163017599999999874e+01
-1.917860000000000120e-01,5.163060300000000069e+01
-2.073019999999999863e-01,5.163447200000000237e+01
-2.360260000000000136e-01,5.163041199999999975e+01
-2.414939999999999864e-01,5.162728599999999801e+01
-2.545069999999999832e-01,5.162226100000000173e+01
-2.547479999999999745e-01,5.162167199999999667e+01
-2.554190000000000071e-01,5.162129800000000301e+01
-2.875389999999999890e-01,5.162364199999999670e+01
-2.879659999999999997e-01,5.162360600000000233e+01
-2.924649999999999750e-01,5.162173099999999692e+01
-2.927449999999999775e-01,5.162160399999999782e+01
-3.080700000000000105e-01,5.161800999999999817e+01
-3.114239999999999786e-01,5.161765499999999918e+01
-3.129270000000000107e-01,5.161702300000000321e+01
-3.315130000000000021e-01,5.161354500000000201e+01
-3.391899999999999915e-01,5.161084699999999970e+01
-3.396460000000000035e-01,5.161077000000000226e+01
-3.547930000000000250e-01,5.160964400000000296e+01
-3.558419999999999916e-01,5.160987000000000080e+01
-3.686869999999999870e-01,5.162307899999999705e+01
-3.880469999999999753e-01,5.162030699999999683e+01
-3.859620000000000273e-01,5.162204299999999790e+01
-3.884210000000000163e-01,5.162185300000000154e+01
-3.945009999999999906e-01,5.162143900000000230e+01
