-1.232600000000000015e-02,5.162691099999999977e+01
-1.186700000000000081e-02,5.162712499999999949e+01
-1.165199999999999916e-02,5.162715699999999686e+01
-1.016999999999999892e-03,5.163161499999999648e+01
9.700000000000000505e-04,5.163041799999999881e+01
1.177199999999999948e-02,5.163415599999999728e+01
2.514500000000000068e-02,5.163521800000000184e+01
3.359100000000000280e-02,5.163919500000000085e+01
3.934700000000000003e-02,5.165536199999999667e+01
3.930399999999999866e-02,5.165568999999999988e+01
3.645000000000000323e-02,5.165866599999999664e+01
3.178600000000000175e-02,5.166213900000000336e+01
3.032299999999999926e-02,5.166149599999999964e+01
2.586700000000000110e-02,5.165324100000000129e+01
