-5.905699999999999839e-02,5.163214299999999923e+01
-5.883399999999999741e-02,5.163209499999999963e+01
-6.087200000000000250e-02,5.163098099999999846e+01
-6.972899999999999932e-02,5.163432499999999692e+01
-8.623899999999999622e-02,5.161663399999999768e+01
-8.722499999999999698e-02,5.161615499999999912e+01
-1.094890000000000030e-01,5.161225400000000008e+01
-1.279299999999999882e-01,5.161480000000000246e+01
-1.354509999999999881e-01,5.161116899999999674e+01
-1.581160000000000065e-01,5.160563799999999901e+01
-2.046179999999999943e-01,5.158888499999999766e+01
-2.275969999999999938e-01,5.159942000000000206e+01
-3.637639999999999763e-01,5.166884499999999747e+01
-3.688640000000000252e-01,5.167079499999999825e+01
-3.705459999999999865e-01,5.167001700000000142e+01
-3.829250000000000154e-01,5.166670299999999827e+01
-3.877510000000000123e-01,5.165537900000000349e+01
-3.877419999999999756e-01,5.165496999999999872e+01
-3.919369999999999798e-01,5.165303800000000223e+01
-3.986680000000000224e-01,5.165524200000000121e+01
-4.019420000000000215e-01,5.165545500000000345e+01
-4.059630000000000183e-01,5.165446599999999933e+01
-4.051969999999999739e-01,5.165394799999999975e+01
-4.065840000000000010e-01,5.165271899999999761e+01
