1.866220000000000101e-01,5.164291599999999960e+01
1.961729999999999863e-01,5.163647000000000276e+01
1.915800000000000003e-01,5.163211600000000345e+01
1.873319999999999985e-01,5.162694799999999873e+01
1.751489999999999991e-01,5.163151200000000074e+01
1.715879999999999905e-01,5.165480300000000113e+01
1.715430000000000010e-01,5.165491600000000005e+01
1.184230000000000005e-01,5.165137399999999701e+01
1.179110000000000019e-01,5.165033600000000291e+01
1.067799999999999999e-01,5.164629699999999701e+01
1.039640000000000009e-01,5.164450599999999980e+01
1.038059999999999955e-01,5.164433400000000063e+01
8.693099999999999439e-02,5.163500299999999754e+01
8.316800000000000581e-02,5.162774999999999892e+01
8.086400000000000532e-02,5.162447999999999837e+01
6.598299999999999998e-02,5.162540599999999813e+01
4.813100000000000017e-02,5.162713500000000266e+01
4.616800000000000070e-02,5.162713000000000108e+01
4.562499999999999889e-02,5.162519000000000347e+01
4.427400000000000085e-02,5.162436399999999992e+01
4.019099999999999756e-02,5.161622200000000049e+01
3.676700000000000107e-02,5.161206299999999914e+01
3.541099999999999803e-02,5.161235099999999676e+01
3.547800000000000259e-02,5.161244200000000149e+01
