4.006799999999999945e-02,5.162928200000000345e+01
3.976299999999999973e-02,5.162907400000000280e+01
4.282600000000000295e-02,5.162900100000000236e+01
4.330300000000000121e-02,5.162695000000000078e+01
4.813100000000000017e-02,5.162713500000000266e+01
5.405499999999999888e-02,5.163341900000000351e+01
6.138300000000000006e-02,5.163885499999999951e+01
8.302800000000000458e-02,5.164328700000000083e+01
8.441899999999999404e-02,5.164048600000000278e+01
8.718399999999999761e-02,5.164009099999999819e+01
