-5.178499999999999770e-02,5.166353099999999898e+01
-5.156800000000000272e-02,5.166307199999999966e+01
-5.269800000000000179e-02,5.166280700000000081e+01
-5.292399999999999882e-02,5.165991300000000308e+01
-5.816099999999999742e-02,5.166000600000000276e+01
-6.300899999999999557e-02,5.164008700000000118e+01
-6.929200000000000637e-02,5.163471799999999945e+01
-6.573299999999999976e-02,5.163301799999999986e+01
-6.456699999999999939e-02,5.162588600000000127e+01
-6.411300000000000332e-02,5.162573499999999882e+01
-6.695399999999999963e-02,5.161683699999999675e+01
