-1.401590000000000058e-01,5.166816500000000190e+01
-1.415679999999999994e-01,5.166770700000000005e+01
-1.573269999999999946e-01,5.166717799999999983e+01
-1.607369999999999910e-01,5.167150600000000082e+01
-1.701479999999999937e-01,5.168534600000000268e+01
-1.707509999999999861e-01,5.168570199999999915e+01
-1.758339999999999903e-01,5.168469000000000335e+01
-2.164969999999999950e-01,5.168363200000000290e+01
-2.281070000000000042e-01,5.168513200000000296e+01
-2.295760000000000023e-01,5.168434400000000295e+01
-2.337549999999999906e-01,5.167965399999999931e+01
-2.542840000000000100e-01,5.164346299999999701e+01
-2.553949999999999831e-01,5.164308799999999877e+01
-2.610529999999999795e-01,5.164479899999999901e+01
-2.998040000000000149e-01,5.164377600000000257e+01
-3.130189999999999917e-01,5.164265699999999981e+01
-3.204449999999999799e-01,5.164256900000000172e+01
-3.213670000000000138e-01,5.164273500000000183e+01
-3.216950000000000087e-01,5.164302299999999946e+01
-3.508330000000000060e-01,5.165806200000000104e+01
-3.505199999999999982e-01,5.165548199999999923e+01
-3.474659999999999971e-01,5.164959999999999951e+01
-3.462200000000000277e-01,5.165107799999999827e+01
